depth = 2240;
width = 1;
address_radix = dec;
data_radix = bin;
content
begin
  0 :0;
  1 :0;
  2 :1;
  3 :1;
  4 :1;
  5 :1;
  6 :1;
  7 :1;
  8 :1;
  9 :1;
 10 :1;
 11 :0;
 12 :0;
 13 :0;
 14 :0;
 15 :0;
 16 :0;
 17 :1;
 18 :1;
 19 :1;
 20 :1;
 21 :1;
 22 :1;
 23 :1;
 24 :1;
 25 :1;
 26 :0;
 27 :0;
 28 :0;
 29 :0;
 30 :1;
 31 :1;
 32 :1;
 33 :1;
 34 :1;
 35 :1;
 36 :1;
 37 :1;
 38 :1;
 39 :1;
 40 :1;
 41 :0;
 42 :1;
 43 :1;
 44 :1;
 45 :1;
 46 :1;
 47 :1;
 48 :0;
 49 :0;
 50 :0;
 51 :0;
 52 :1;
 53 :1;
 54 :1;
 55 :0;
 56 :1;
 57 :1;
 58 :1;
 59 :1;
 60 :1;
 61 :1;
 62 :0;
 63 :0;
 64 :0;
 65 :0;
 66 :1;
 67 :1;
 68 :1;
 69 :0;
 70 :1;
 71 :1;
 72 :1;
 73 :1;
 74 :1;
 75 :1;
 76 :0;
 77 :0;
 78 :0;
 79 :0;
 80 :1;
 81 :1;
 82 :1;
 83 :0;
 84 :1;
 85 :1;
 86 :1;
 87 :1;
 88 :1;
 89 :1;
 90 :0;
 91 :0;
 92 :0;
 93 :0;
 94 :1;
 95 :1;
 96 :1;
 97 :0;
 98 :1;
 99 :1;
100 :1;
101 :1;
102 :1;
103 :1;
104 :0;
105 :0;
106 :0;
107 :0;
108 :1;
109 :1;
110 :1;
111 :0;
112 :1;
113 :1;
114 :1;
115 :1;
116 :1;
117 :1;
118 :0;
119 :0;
120 :0;
121 :0;
122 :1;
123 :1;
124 :1;
125 :0;
126 :1;
127 :1;
128 :1;
129 :1;
130 :1;
131 :1;
132 :0;
133 :0;
134 :0;
135 :0;
136 :1;
137 :1;
138 :1;
139 :0;
140 :1;
141 :1;
142 :1;
143 :1;
144 :1;
145 :1;
146 :1;
147 :1;
148 :1;
149 :1;
150 :1;
151 :1;
152 :1;
153 :0;
154 :1;
155 :1;
156 :1;
157 :1;
158 :1;
159 :1;
160 :1;
161 :1;
162 :1;
163 :1;
164 :1;
165 :1;
166 :1;
167 :0;
168 :0;
169 :1;
170 :1;
171 :1;
172 :1;
173 :1;
174 :1;
175 :1;
176 :1;
177 :1;
178 :1;
179 :1;
180 :0;
181 :0;
182 :0;
183 :0;
184 :1;
185 :1;
186 :1;
187 :1;
188 :1;
189 :1;
190 :1;
191 :1;
192 :1;
193 :0;
194 :0;
195 :0;
196 :0;
197 :0;
198 :0;
199 :0;
200 :0;
201 :0;
202 :0;
203 :0;
204 :0;
205 :0;
206 :0;
207 :0;
208 :0;
209 :0;
210 :0;
211 :0;
212 :0;
213 :0;
214 :0;
215 :0;
216 :0;
217 :0;
218 :0;
219 :0;
220 :0;
221 :0;
222 :0;
223 :0;
224 :0;
225 :0;
226 :0;
227 :1;
228 :1;
229 :1;
230 :1;
231 :1;
232 :1;
233 :1;
234 :0;
235 :0;
236 :0;
237 :0;
238 :0;
239 :0;
240 :1;
241 :0;
242 :0;
243 :1;
244 :1;
245 :1;
246 :1;
247 :1;
248 :1;
249 :0;
250 :0;
251 :0;
252 :0;
253 :0;
254 :1;
255 :0;
256 :1;
257 :1;
258 :1;
259 :1;
260 :1;
261 :1;
262 :1;
263 :0;
264 :0;
265 :0;
266 :0;
267 :0;
268 :0;
269 :1;
270 :1;
271 :1;
272 :1;
273 :1;
274 :1;
275 :1;
276 :1;
277 :0;
278 :0;
279 :0;
280 :0;
281 :0;
282 :0;
283 :0;
284 :1;
285 :1;
286 :1;
287 :1;
288 :1;
289 :1;
290 :1;
291 :0;
292 :0;
293 :0;
294 :0;
295 :0;
296 :0;
297 :0;
298 :1;
299 :1;
300 :1;
301 :1;
302 :1;
303 :1;
304 :1;
305 :0;
306 :0;
307 :0;
308 :0;
309 :0;
310 :0;
311 :0;
312 :1;
313 :1;
314 :1;
315 :1;
316 :1;
317 :1;
318 :1;
319 :0;
320 :0;
321 :0;
322 :0;
323 :0;
324 :0;
325 :0;
326 :1;
327 :1;
328 :1;
329 :1;
330 :1;
331 :1;
332 :1;
333 :0;
334 :0;
335 :0;
336 :0;
337 :0;
338 :0;
339 :0;
340 :1;
341 :1;
342 :1;
343 :1;
344 :1;
345 :1;
346 :1;
347 :0;
348 :0;
349 :0;
350 :0;
351 :0;
352 :0;
353 :0;
354 :1;
355 :1;
356 :1;
357 :1;
358 :1;
359 :1;
360 :1;
361 :0;
362 :0;
363 :0;
364 :0;
365 :0;
366 :0;
367 :0;
368 :1;
369 :1;
370 :1;
371 :1;
372 :1;
373 :1;
374 :1;
375 :0;
376 :0;
377 :0;
378 :0;
379 :0;
380 :0;
381 :0;
382 :1;
383 :1;
384 :1;
385 :1;
386 :1;
387 :1;
388 :1;
389 :0;
390 :0;
391 :0;
392 :0;
393 :0;
394 :0;
395 :0;
396 :1;
397 :1;
398 :1;
399 :1;
400 :1;
401 :1;
402 :1;
403 :0;
404 :0;
405 :0;
406 :0;
407 :0;
408 :0;
409 :0;
410 :0;
411 :1;
412 :1;
413 :1;
414 :1;
415 :1;
416 :0;
417 :0;
418 :0;
419 :0;
420 :0;
421 :0;
422 :0;
423 :0;
424 :0;
425 :0;
426 :0;
427 :0;
428 :0;
429 :0;
430 :0;
431 :0;
432 :0;
433 :0;
434 :0;
435 :0;
436 :0;
437 :0;
438 :0;
439 :0;
440 :0;
441 :0;
442 :0;
443 :0;
444 :0;
445 :0;
446 :0;
447 :0;
448 :0;
449 :1;
450 :1;
451 :1;
452 :1;
453 :1;
454 :1;
455 :1;
456 :1;
457 :1;
458 :1;
459 :0;
460 :0;
461 :0;
462 :0;
463 :0;
464 :0;
465 :1;
466 :1;
467 :1;
468 :1;
469 :1;
470 :1;
471 :1;
472 :1;
473 :1;
474 :0;
475 :0;
476 :0;
477 :0;
478 :1;
479 :1;
480 :1;
481 :1;
482 :1;
483 :1;
484 :1;
485 :1;
486 :1;
487 :1;
488 :1;
489 :0;
490 :0;
491 :1;
492 :1;
493 :1;
494 :1;
495 :1;
496 :1;
497 :1;
498 :1;
499 :1;
500 :1;
501 :1;
502 :1;
503 :0;
504 :0;
505 :0;
506 :0;
507 :0;
508 :0;
509 :0;
510 :0;
511 :0;
512 :0;
513 :1;
514 :1;
515 :1;
516 :1;
517 :0;
518 :0;
519 :0;
520 :1;
521 :1;
522 :1;
523 :1;
524 :1;
525 :1;
526 :1;
527 :1;
528 :1;
529 :1;
530 :1;
531 :0;
532 :0;
533 :1;
534 :1;
535 :1;
536 :1;
537 :1;
538 :1;
539 :1;
540 :1;
541 :1;
542 :1;
543 :1;
544 :0;
545 :0;
546 :1;
547 :1;
548 :1;
549 :1;
550 :1;
551 :1;
552 :1;
553 :1;
554 :1;
555 :1;
556 :1;
557 :0;
558 :0;
559 :0;
560 :1;
561 :1;
562 :1;
563 :1;
564 :1;
565 :1;
566 :0;
567 :0;
568 :0;
569 :0;
570 :0;
571 :0;
572 :0;
573 :0;
574 :1;
575 :1;
576 :1;
577 :1;
578 :1;
579 :1;
580 :1;
581 :1;
582 :1;
583 :1;
584 :1;
585 :1;
586 :0;
587 :0;
588 :1;
589 :1;
590 :1;
591 :1;
592 :1;
593 :1;
594 :1;
595 :1;
596 :1;
597 :1;
598 :1;
599 :1;
600 :1;
601 :0;
602 :1;
603 :1;
604 :1;
605 :1;
606 :1;
607 :1;
608 :1;
609 :1;
610 :1;
611 :1;
612 :1;
613 :1;
614 :1;
615 :0;
616 :1;
617 :1;
618 :1;
619 :1;
620 :1;
621 :1;
622 :1;
623 :1;
624 :1;
625 :1;
626 :1;
627 :1;
628 :1;
629 :0;
630 :0;
631 :1;
632 :1;
633 :1;
634 :1;
635 :1;
636 :1;
637 :1;
638 :1;
639 :1;
640 :1;
641 :1;
642 :0;
643 :0;
644 :0;
645 :0;
646 :0;
647 :0;
648 :0;
649 :0;
650 :0;
651 :0;
652 :0;
653 :0;
654 :0;
655 :0;
656 :0;
657 :0;
658 :0;
659 :0;
660 :0;
661 :0;
662 :0;
663 :0;
664 :0;
665 :0;
666 :0;
667 :0;
668 :0;
669 :0;
670 :0;
671 :0;
672 :0;
673 :0;
674 :1;
675 :1;
676 :1;
677 :1;
678 :1;
679 :1;
680 :1;
681 :1;
682 :1;
683 :0;
684 :0;
685 :0;
686 :0;
687 :0;
688 :0;
689 :1;
690 :1;
691 :1;
692 :1;
693 :1;
694 :1;
695 :1;
696 :1;
697 :1;
698 :0;
699 :0;
700 :0;
701 :0;
702 :1;
703 :1;
704 :1;
705 :1;
706 :1;
707 :1;
708 :1;
709 :1;
710 :1;
711 :1;
712 :1;
713 :0;
714 :0;
715 :1;
716 :1;
717 :1;
718 :1;
719 :1;
720 :1;
721 :1;
722 :1;
723 :1;
724 :1;
725 :1;
726 :1;
727 :0;
728 :0;
729 :0;
730 :0;
731 :0;
732 :0;
733 :0;
734 :0;
735 :0;
736 :0;
737 :0;
738 :1;
739 :1;
740 :1;
741 :0;
742 :0;
743 :0;
744 :1;
745 :1;
746 :1;
747 :1;
748 :1;
749 :1;
750 :1;
751 :1;
752 :1;
753 :1;
754 :1;
755 :0;
756 :0;
757 :1;
758 :1;
759 :1;
760 :1;
761 :1;
762 :1;
763 :1;
764 :1;
765 :1;
766 :1;
767 :1;
768 :1;
769 :0;
770 :0;
771 :0;
772 :1;
773 :1;
774 :1;
775 :1;
776 :1;
777 :1;
778 :1;
779 :1;
780 :1;
781 :1;
782 :1;
783 :0;
784 :0;
785 :0;
786 :0;
787 :0;
788 :0;
789 :0;
790 :0;
791 :0;
792 :0;
793 :0;
794 :1;
795 :1;
796 :1;
797 :0;
798 :0;
799 :1;
800 :1;
801 :1;
802 :1;
803 :1;
804 :1;
805 :1;
806 :1;
807 :1;
808 :1;
809 :1;
810 :1;
811 :0;
812 :1;
813 :1;
814 :1;
815 :1;
816 :1;
817 :1;
818 :1;
819 :1;
820 :1;
821 :1;
822 :1;
823 :1;
824 :1;
825 :0;
826 :1;
827 :1;
828 :1;
829 :1;
830 :1;
831 :1;
832 :1;
833 :1;
834 :1;
835 :1;
836 :1;
837 :1;
838 :1;
839 :0;
840 :0;
841 :1;
842 :1;
843 :1;
844 :1;
845 :1;
846 :1;
847 :1;
848 :1;
849 :1;
850 :1;
851 :1;
852 :0;
853 :0;
854 :0;
855 :0;
856 :1;
857 :1;
858 :1;
859 :1;
860 :1;
861 :1;
862 :1;
863 :1;
864 :1;
865 :0;
866 :0;
867 :0;
868 :0;
869 :0;
870 :0;
871 :0;
872 :0;
873 :0;
874 :0;
875 :0;
876 :0;
877 :0;
878 :0;
879 :0;
880 :0;
881 :0;
882 :0;
883 :0;
884 :0;
885 :0;
886 :0;
887 :0;
888 :0;
889 :0;
890 :0;
891 :0;
892 :0;
893 :0;
894 :0;
895 :0;
896 :0;
897 :1;
898 :1;
899 :1;
900 :0;
901 :0;
902 :0;
903 :0;
904 :1;
905 :1;
906 :0;
907 :0;
908 :0;
909 :0;
910 :0;
911 :0;
912 :0;
913 :1;
914 :1;
915 :0;
916 :0;
917 :1;
918 :1;
919 :1;
920 :1;
921 :0;
922 :0;
923 :0;
924 :0;
925 :0;
926 :1;
927 :1;
928 :1;
929 :0;
930 :0;
931 :1;
932 :1;
933 :1;
934 :1;
935 :0;
936 :0;
937 :0;
938 :1;
939 :1;
940 :1;
941 :1;
942 :1;
943 :0;
944 :0;
945 :1;
946 :1;
947 :1;
948 :1;
949 :0;
950 :0;
951 :0;
952 :1;
953 :1;
954 :1;
955 :1;
956 :1;
957 :0;
958 :0;
959 :1;
960 :1;
961 :1;
962 :1;
963 :0;
964 :0;
965 :0;
966 :1;
967 :1;
968 :1;
969 :1;
970 :1;
971 :0;
972 :0;
973 :1;
974 :1;
975 :1;
976 :1;
977 :0;
978 :0;
979 :0;
980 :1;
981 :1;
982 :1;
983 :1;
984 :1;
985 :0;
986 :0;
987 :1;
988 :1;
989 :1;
990 :1;
991 :0;
992 :0;
993 :0;
994 :1;
995 :1;
996 :1;
997 :1;
998 :1;
999 :1;
1000 :1;
1001 :1;
1002 :1;
1003 :1;
1004 :1;
1005 :1;
1006 :0;
1007 :0;
1008 :1;
1009 :1;
1010 :1;
1011 :1;
1012 :1;
1013 :1;
1014 :1;
1015 :1;
1016 :1;
1017 :1;
1018 :1;
1019 :1;
1020 :1;
1021 :0;
1022 :0;
1023 :1;
1024 :1;
1025 :1;
1026 :1;
1027 :1;
1028 :1;
1029 :1;
1030 :1;
1031 :1;
1032 :1;
1033 :1;
1034 :1;
1035 :0;
1036 :0;
1037 :0;
1038 :1;
1039 :1;
1040 :1;
1041 :1;
1042 :1;
1043 :1;
1044 :1;
1045 :1;
1046 :1;
1047 :1;
1048 :0;
1049 :0;
1050 :0;
1051 :0;
1052 :0;
1053 :0;
1054 :0;
1055 :0;
1056 :0;
1057 :1;
1058 :1;
1059 :1;
1060 :1;
1061 :0;
1062 :0;
1063 :0;
1064 :0;
1065 :0;
1066 :0;
1067 :0;
1068 :0;
1069 :0;
1070 :0;
1071 :1;
1072 :1;
1073 :1;
1074 :1;
1075 :0;
1076 :0;
1077 :0;
1078 :0;
1079 :0;
1080 :0;
1081 :0;
1082 :0;
1083 :0;
1084 :0;
1085 :0;
1086 :1;
1087 :1;
1088 :0;
1089 :0;
1090 :0;
1091 :0;
1092 :0;
1093 :0;
1094 :0;
1095 :0;
1096 :0;
1097 :0;
1098 :0;
1099 :0;
1100 :0;
1101 :0;
1102 :0;
1103 :0;
1104 :0;
1105 :0;
1106 :0;
1107 :0;
1108 :0;
1109 :0;
1110 :0;
1111 :0;
1112 :0;
1113 :0;
1114 :0;
1115 :0;
1116 :0;
1117 :0;
1118 :0;
1119 :0;
1120 :0;
1121 :1;
1122 :1;
1123 :1;
1124 :1;
1125 :1;
1126 :1;
1127 :1;
1128 :1;
1129 :1;
1130 :1;
1131 :1;
1132 :0;
1133 :0;
1134 :0;
1135 :0;
1136 :0;
1137 :1;
1138 :1;
1139 :1;
1140 :1;
1141 :1;
1142 :1;
1143 :1;
1144 :1;
1145 :1;
1146 :1;
1147 :0;
1148 :0;
1149 :0;
1150 :1;
1151 :1;
1152 :1;
1153 :1;
1154 :1;
1155 :1;
1156 :1;
1157 :1;
1158 :1;
1159 :1;
1160 :1;
1161 :0;
1162 :1;
1163 :1;
1164 :1;
1165 :1;
1166 :1;
1167 :1;
1168 :1;
1169 :1;
1170 :1;
1171 :1;
1172 :1;
1173 :1;
1174 :0;
1175 :0;
1176 :1;
1177 :1;
1178 :1;
1179 :1;
1180 :1;
1181 :1;
1182 :0;
1183 :0;
1184 :0;
1185 :0;
1186 :0;
1187 :0;
1188 :0;
1189 :0;
1190 :1;
1191 :1;
1192 :1;
1193 :1;
1194 :1;
1195 :1;
1196 :1;
1197 :1;
1198 :1;
1199 :1;
1200 :1;
1201 :0;
1202 :0;
1203 :0;
1204 :1;
1205 :1;
1206 :1;
1207 :1;
1208 :1;
1209 :1;
1210 :1;
1211 :1;
1212 :1;
1213 :1;
1214 :1;
1215 :1;
1216 :0;
1217 :0;
1218 :0;
1219 :1;
1220 :1;
1221 :1;
1222 :1;
1223 :1;
1224 :1;
1225 :1;
1226 :1;
1227 :1;
1228 :1;
1229 :1;
1230 :1;
1231 :0;
1232 :0;
1233 :0;
1234 :0;
1235 :0;
1236 :0;
1237 :0;
1238 :0;
1239 :0;
1240 :0;
1241 :1;
1242 :1;
1243 :1;
1244 :1;
1245 :0;
1246 :0;
1247 :1;
1248 :1;
1249 :1;
1250 :1;
1251 :1;
1252 :1;
1253 :1;
1254 :1;
1255 :1;
1256 :1;
1257 :1;
1258 :1;
1259 :0;
1260 :1;
1261 :1;
1262 :1;
1263 :1;
1264 :1;
1265 :1;
1266 :1;
1267 :1;
1268 :1;
1269 :1;
1270 :1;
1271 :1;
1272 :1;
1273 :0;
1274 :1;
1275 :1;
1276 :1;
1277 :1;
1278 :1;
1279 :1;
1280 :1;
1281 :1;
1282 :1;
1283 :1;
1284 :1;
1285 :1;
1286 :1;
1287 :0;
1288 :1;
1289 :1;
1290 :1;
1291 :1;
1292 :1;
1293 :1;
1294 :1;
1295 :1;
1296 :1;
1297 :1;
1298 :1;
1299 :1;
1300 :0;
1301 :0;
1302 :0;
1303 :1;
1304 :1;
1305 :1;
1306 :1;
1307 :1;
1308 :1;
1309 :1;
1310 :1;
1311 :1;
1312 :1;
1313 :0;
1314 :0;
1315 :0;
1316 :0;
1317 :0;
1318 :0;
1319 :0;
1320 :0;
1321 :0;
1322 :0;
1323 :0;
1324 :0;
1325 :0;
1326 :0;
1327 :0;
1328 :0;
1329 :0;
1330 :0;
1331 :0;
1332 :0;
1333 :0;
1334 :0;
1335 :0;
1336 :0;
1337 :0;
1338 :0;
1339 :0;
1340 :0;
1341 :0;
1342 :0;
1343 :0;
1344 :0;
1345 :0;
1346 :1;
1347 :1;
1348 :1;
1349 :1;
1350 :1;
1351 :1;
1352 :1;
1353 :1;
1354 :1;
1355 :0;
1356 :0;
1357 :0;
1358 :0;
1359 :0;
1360 :0;
1361 :1;
1362 :1;
1363 :1;
1364 :1;
1365 :1;
1366 :1;
1367 :1;
1368 :1;
1369 :1;
1370 :0;
1371 :0;
1372 :0;
1373 :0;
1374 :1;
1375 :1;
1376 :1;
1377 :1;
1378 :1;
1379 :1;
1380 :1;
1381 :1;
1382 :1;
1383 :0;
1384 :0;
1385 :0;
1386 :1;
1387 :1;
1388 :1;
1389 :1;
1390 :1;
1391 :1;
1392 :0;
1393 :0;
1394 :0;
1395 :0;
1396 :0;
1397 :0;
1398 :0;
1399 :0;
1400 :1;
1401 :1;
1402 :1;
1403 :1;
1404 :1;
1405 :1;
1406 :0;
1407 :0;
1408 :0;
1409 :0;
1410 :0;
1411 :0;
1412 :0;
1413 :0;
1414 :1;
1415 :1;
1416 :1;
1417 :1;
1418 :1;
1419 :1;
1420 :1;
1421 :1;
1422 :1;
1423 :1;
1424 :1;
1425 :0;
1426 :0;
1427 :0;
1428 :1;
1429 :1;
1430 :1;
1431 :1;
1432 :1;
1433 :1;
1434 :1;
1435 :1;
1436 :1;
1437 :1;
1438 :1;
1439 :1;
1440 :0;
1441 :0;
1442 :1;
1443 :1;
1444 :1;
1445 :1;
1446 :1;
1447 :1;
1448 :1;
1449 :1;
1450 :1;
1451 :1;
1452 :1;
1453 :1;
1454 :1;
1455 :0;
1456 :1;
1457 :1;
1458 :1;
1459 :1;
1460 :1;
1461 :1;
1462 :0;
1463 :0;
1464 :0;
1465 :0;
1466 :1;
1467 :1;
1468 :1;
1469 :0;
1470 :1;
1471 :1;
1472 :1;
1473 :1;
1474 :1;
1475 :1;
1476 :0;
1477 :0;
1478 :0;
1479 :0;
1480 :1;
1481 :1;
1482 :1;
1483 :0;
1484 :1;
1485 :1;
1486 :1;
1487 :1;
1488 :1;
1489 :1;
1490 :1;
1491 :1;
1492 :1;
1493 :1;
1494 :1;
1495 :1;
1496 :1;
1497 :0;
1498 :1;
1499 :1;
1500 :1;
1501 :1;
1502 :1;
1503 :1;
1504 :1;
1505 :1;
1506 :1;
1507 :1;
1508 :1;
1509 :1;
1510 :1;
1511 :0;
1512 :0;
1513 :1;
1514 :1;
1515 :1;
1516 :1;
1517 :1;
1518 :1;
1519 :1;
1520 :1;
1521 :1;
1522 :1;
1523 :1;
1524 :0;
1525 :0;
1526 :0;
1527 :0;
1528 :1;
1529 :1;
1530 :1;
1531 :1;
1532 :1;
1533 :1;
1534 :1;
1535 :1;
1536 :1;
1537 :0;
1538 :0;
1539 :0;
1540 :0;
1541 :0;
1542 :0;
1543 :0;
1544 :0;
1545 :0;
1546 :0;
1547 :0;
1548 :0;
1549 :0;
1550 :0;
1551 :0;
1552 :0;
1553 :0;
1554 :0;
1555 :0;
1556 :0;
1557 :0;
1558 :0;
1559 :0;
1560 :0;
1561 :0;
1562 :0;
1563 :0;
1564 :0;
1565 :0;
1566 :0;
1567 :0;
1568 :0;
1569 :1;
1570 :1;
1571 :1;
1572 :1;
1573 :1;
1574 :1;
1575 :1;
1576 :1;
1577 :1;
1578 :1;
1579 :1;
1580 :0;
1581 :0;
1582 :0;
1583 :0;
1584 :0;
1585 :1;
1586 :1;
1587 :1;
1588 :1;
1589 :1;
1590 :1;
1591 :1;
1592 :1;
1593 :1;
1594 :1;
1595 :0;
1596 :0;
1597 :0;
1598 :1;
1599 :1;
1600 :1;
1601 :1;
1602 :1;
1603 :1;
1604 :1;
1605 :1;
1606 :1;
1607 :1;
1608 :1;
1609 :0;
1610 :0;
1611 :1;
1612 :1;
1613 :1;
1614 :1;
1615 :1;
1616 :1;
1617 :1;
1618 :1;
1619 :1;
1620 :1;
1621 :1;
1622 :1;
1623 :0;
1624 :0;
1625 :0;
1626 :0;
1627 :0;
1628 :0;
1629 :0;
1630 :0;
1631 :1;
1632 :1;
1633 :1;
1634 :1;
1635 :1;
1636 :1;
1637 :0;
1638 :0;
1639 :0;
1640 :0;
1641 :0;
1642 :0;
1643 :0;
1644 :1;
1645 :1;
1646 :1;
1647 :1;
1648 :1;
1649 :1;
1650 :0;
1651 :0;
1652 :0;
1653 :0;
1654 :0;
1655 :0;
1656 :0;
1657 :1;
1658 :1;
1659 :1;
1660 :1;
1661 :1;
1662 :1;
1663 :0;
1664 :0;
1665 :0;
1666 :0;
1667 :0;
1668 :0;
1669 :0;
1670 :0;
1671 :1;
1672 :1;
1673 :1;
1674 :1;
1675 :1;
1676 :0;
1677 :0;
1678 :0;
1679 :0;
1680 :0;
1681 :0;
1682 :0;
1683 :0;
1684 :1;
1685 :1;
1686 :1;
1687 :1;
1688 :1;
1689 :0;
1690 :0;
1691 :0;
1692 :0;
1693 :0;
1694 :0;
1695 :0;
1696 :0;
1697 :0;
1698 :1;
1699 :1;
1700 :1;
1701 :1;
1702 :1;
1703 :0;
1704 :0;
1705 :0;
1706 :0;
1707 :0;
1708 :0;
1709 :0;
1710 :0;
1711 :0;
1712 :1;
1713 :1;
1714 :1;
1715 :1;
1716 :1;
1717 :0;
1718 :0;
1719 :0;
1720 :0;
1721 :0;
1722 :0;
1723 :0;
1724 :0;
1725 :0;
1726 :1;
1727 :1;
1728 :1;
1729 :1;
1730 :1;
1731 :0;
1732 :0;
1733 :0;
1734 :0;
1735 :0;
1736 :0;
1737 :0;
1738 :0;
1739 :0;
1740 :1;
1741 :1;
1742 :1;
1743 :1;
1744 :1;
1745 :0;
1746 :0;
1747 :0;
1748 :0;
1749 :0;
1750 :0;
1751 :0;
1752 :0;
1753 :0;
1754 :0;
1755 :1;
1756 :1;
1757 :1;
1758 :0;
1759 :0;
1760 :0;
1761 :0;
1762 :0;
1763 :0;
1764 :0;
1765 :0;
1766 :0;
1767 :0;
1768 :0;
1769 :0;
1770 :0;
1771 :0;
1772 :0;
1773 :0;
1774 :0;
1775 :0;
1776 :0;
1777 :0;
1778 :0;
1779 :0;
1780 :0;
1781 :0;
1782 :0;
1783 :0;
1784 :0;
1785 :0;
1786 :0;
1787 :0;
1788 :0;
1789 :0;
1790 :0;
1791 :0;
1792 :0;
1793 :0;
1794 :1;
1795 :1;
1796 :1;
1797 :1;
1798 :1;
1799 :1;
1800 :1;
1801 :1;
1802 :1;
1803 :0;
1804 :0;
1805 :0;
1806 :0;
1807 :0;
1808 :0;
1809 :1;
1810 :1;
1811 :1;
1812 :1;
1813 :1;
1814 :1;
1815 :1;
1816 :1;
1817 :1;
1818 :0;
1819 :0;
1820 :0;
1821 :0;
1822 :1;
1823 :1;
1824 :1;
1825 :1;
1826 :1;
1827 :1;
1828 :1;
1829 :1;
1830 :1;
1831 :1;
1832 :1;
1833 :0;
1834 :1;
1835 :1;
1836 :1;
1837 :1;
1838 :1;
1839 :1;
1840 :0;
1841 :0;
1842 :0;
1843 :0;
1844 :1;
1845 :1;
1846 :1;
1847 :0;
1848 :1;
1849 :1;
1850 :1;
1851 :1;
1852 :1;
1853 :1;
1854 :0;
1855 :0;
1856 :0;
1857 :0;
1858 :1;
1859 :1;
1860 :1;
1861 :0;
1862 :1;
1863 :1;
1864 :1;
1865 :1;
1866 :1;
1867 :1;
1868 :1;
1869 :1;
1870 :1;
1871 :1;
1872 :1;
1873 :1;
1874 :1;
1875 :0;
1876 :0;
1877 :1;
1878 :1;
1879 :1;
1880 :1;
1881 :1;
1882 :1;
1883 :1;
1884 :1;
1885 :1;
1886 :1;
1887 :1;
1888 :0;
1889 :0;
1890 :1;
1891 :1;
1892 :1;
1893 :1;
1894 :1;
1895 :1;
1896 :1;
1897 :1;
1898 :1;
1899 :1;
1900 :1;
1901 :1;
1902 :1;
1903 :0;
1904 :1;
1905 :1;
1906 :1;
1907 :1;
1908 :1;
1909 :1;
1910 :0;
1911 :0;
1912 :0;
1913 :0;
1914 :1;
1915 :1;
1916 :1;
1917 :0;
1918 :1;
1919 :1;
1920 :1;
1921 :1;
1922 :1;
1923 :1;
1924 :0;
1925 :0;
1926 :0;
1927 :0;
1928 :1;
1929 :1;
1930 :1;
1931 :0;
1932 :1;
1933 :1;
1934 :1;
1935 :1;
1936 :1;
1937 :1;
1938 :1;
1939 :1;
1940 :1;
1941 :1;
1942 :1;
1943 :1;
1944 :1;
1945 :0;
1946 :1;
1947 :1;
1948 :1;
1949 :1;
1950 :1;
1951 :1;
1952 :1;
1953 :1;
1954 :1;
1955 :1;
1956 :1;
1957 :1;
1958 :1;
1959 :0;
1960 :0;
1961 :1;
1962 :1;
1963 :1;
1964 :1;
1965 :1;
1966 :1;
1967 :1;
1968 :1;
1969 :1;
1970 :1;
1971 :1;
1972 :0;
1973 :0;
1974 :0;
1975 :0;
1976 :1;
1977 :1;
1978 :1;
1979 :1;
1980 :1;
1981 :1;
1982 :1;
1983 :1;
1984 :1;
1985 :0;
1986 :0;
1987 :0;
1988 :0;
1989 :0;
1990 :0;
1991 :0;
1992 :0;
1993 :0;
1994 :0;
1995 :0;
1996 :0;
1997 :0;
1998 :0;
1999 :0;
2000 :0;
2001 :0;
2002 :0;
2003 :0;
2004 :0;
2005 :0;
2006 :0;
2007 :0;
2008 :0;
2009 :0;
2010 :0;
2011 :0;
2012 :0;
2013 :0;
2014 :0;
2015 :0;
2016 :0;
2017 :0;
2018 :1;
2019 :1;
2020 :1;
2021 :1;
2022 :1;
2023 :1;
2024 :1;
2025 :1;
2026 :1;
2027 :0;
2028 :0;
2029 :0;
2030 :0;
2031 :0;
2032 :0;
2033 :1;
2034 :1;
2035 :1;
2036 :1;
2037 :1;
2038 :1;
2039 :1;
2040 :1;
2041 :1;
2042 :0;
2043 :0;
2044 :0;
2045 :0;
2046 :1;
2047 :1;
2048 :1;
2049 :1;
2050 :1;
2051 :1;
2052 :1;
2053 :1;
2054 :1;
2055 :1;
2056 :1;
2057 :0;
2058 :1;
2059 :1;
2060 :1;
2061 :1;
2062 :1;
2063 :1;
2064 :0;
2065 :0;
2066 :0;
2067 :0;
2068 :1;
2069 :1;
2070 :1;
2071 :0;
2072 :1;
2073 :1;
2074 :1;
2075 :1;
2076 :1;
2077 :1;
2078 :0;
2079 :0;
2080 :0;
2081 :0;
2082 :1;
2083 :1;
2084 :1;
2085 :0;
2086 :1;
2087 :1;
2088 :1;
2089 :1;
2090 :1;
2091 :1;
2092 :1;
2093 :1;
2094 :1;
2095 :1;
2096 :1;
2097 :1;
2098 :1;
2099 :0;
2100 :0;
2101 :1;
2102 :1;
2103 :1;
2104 :1;
2105 :1;
2106 :1;
2107 :1;
2108 :1;
2109 :1;
2110 :1;
2111 :1;
2112 :1;
2113 :0;
2114 :0;
2115 :0;
2116 :1;
2117 :1;
2118 :1;
2119 :1;
2120 :1;
2121 :1;
2122 :1;
2123 :1;
2124 :1;
2125 :1;
2126 :0;
2127 :0;
2128 :0;
2129 :0;
2130 :0;
2131 :0;
2132 :0;
2133 :0;
2134 :0;
2135 :1;
2136 :1;
2137 :1;
2138 :1;
2139 :1;
2140 :0;
2141 :0;
2142 :0;
2143 :0;
2144 :0;
2145 :0;
2146 :0;
2147 :0;
2148 :0;
2149 :1;
2150 :1;
2151 :1;
2152 :1;
2153 :0;
2154 :0;
2155 :0;
2156 :0;
2157 :0;
2158 :0;
2159 :0;
2160 :0;
2161 :0;
2162 :1;
2163 :1;
2164 :1;
2165 :1;
2166 :0;
2167 :0;
2168 :0;
2169 :0;
2170 :0;
2171 :0;
2172 :0;
2173 :0;
2174 :1;
2175 :1;
2176 :1;
2177 :1;
2178 :1;
2179 :0;
2180 :0;
2181 :0;
2182 :0;
2183 :0;
2184 :0;
2185 :0;
2186 :0;
2187 :0;
2188 :1;
2189 :1;
2190 :1;
2191 :1;
2192 :0;
2193 :0;
2194 :0;
2195 :0;
2196 :0;
2197 :0;
2198 :0;
2199 :0;
2200 :0;
2201 :0;
2202 :1;
2203 :1;
2204 :1;
2205 :0;
2206 :0;
2207 :0;
2208 :0;
2209 :0;
2210 :0;
2211 :0;
2212 :0;
2213 :0;
2214 :0;
2215 :0;
2216 :0;
2217 :0;
2218 :0;
2219 :0;
2220 :0;
2221 :0;
2222 :0;
2223 :0;
2224 :0;
2225 :0;
2226 :0;
2227 :0;
2228 :0;
2229 :0;
2230 :0;
2231 :0;
2232 :0;
2233 :0;
2234 :0;
2235 :0;
2236 :0;
2237 :0;
2238 :0;
2239 :0;
End;